{"hash":"53fc70af92e1dfd1652072d0d7f1549575e254b8","data":{"posts":{"totalCount":10,"pageInfo":{"totalPages":4,"currentPage":4},"edges":[{"node":{"id":"a42b8bcc7bf15f7796de02de7ae64711","title":"Jeffsum, a Jeff Goldblum movie lines text placeholder generator","timeToRead":1,"datetime":"2018-02-24 18:23:28","content":"<p><a href=\"https://radeau.github.io/blog/\" target=\"_blank\" rel=\"nofollow noopener noreferrer\">Go back Home!!</a></p>\n","excerpt":"Lorem ipsum dolor sit amet, consectetur adipiscing elit, sed do eiusmod tempor incididunt ut labore et dolore magna aliqua. Ut enim ad minim veniam, quis nostrud exercitation ullamco laboris nisi ut aliquip ex ea commodo consequat. [...]","description":"A little text placeholder generator of Jeff Goldblum awesomeness.","path":"/jeffsum-a-jeff-goldblum-movie-lines-text-placeholder-generator/","cover":null,"tags":[{"id":"archived","title":"archived","path":"/tag/archived/"}],"author":null}}]}},"context":{}}