{"hash":"dfea37a76bd371b2812efbbbcbb8f4cbe65b6050","data":{"posts":{"totalCount":11,"pageInfo":{"totalPages":3,"currentPage":3},"edges":[{"node":{"id":"129a82164af33e9c3538ff6e6687a2b9","title":"Nothing but some feeling","timeToRead":1,"datetime":"2019-01-20 13:59:57","content":"<p><a href=\"http://localhost:8080/\" target=\"_blank\" rel=\"nofollow noopener noreferrer\">Go back Home!!</a></p>\n","excerpt":"Lorem ipsum dolor sit amet, consectetur adipiscing elit, sed do eiusmod tempor incididunt ut labore et dolore magna aliqua. Ut enim ad minim veniam, quis nostrud exercitation ullamco laboris nisi ut aliquip ex ea commodo consequat. [...]","description":"A blog of emotions","path":"/nothing-but-some-feeling/","cover":null,"tags":[{"id":"archived","title":"archived","path":"/tag/archived/"}],"author":{"id":"kevin-rad","title":"kevin-rad","path":"/author/kevin-rad/"}}},{"node":{"id":"25b790937832e21ee4dff21779bcaac8","title":"The Book that Inspires me","timeToRead":1,"datetime":"2019-01-06 17:16:36","content":"<p><a href=\"http://localhost:8080/\" target=\"_blank\" rel=\"nofollow noopener noreferrer\">Go back Home!!</a></p>\n<!-- Hey there fellas👋! \n\nI remember a time when I was feeling lost and unsure of my career path. I had always dreamed of becoming a software engineer, but I didn't know how to make that dream a reality. I felt like I was stuck in a dead-end job, and that my dream of becoming an engineer was slipping further and further away.\n\nOne day, I came across the quote from \"The Alchemist\" that reads, \"If you really want something, all the universe conspires to make it happen.\" Those words spoke to me in a way that I can't quite describe. They gave me a sense of hope and possibility that I had been missing.\n\nWhat I love about this quote is that it speaks to the idea that our dreams are possible, even when they may seem impossible at first. It reminds us that when we have a clear intention and a strong desire, the universe can conspire to help us in ways that we may not have even imagined.\n\nBut this quote is not just about wishful thinking or waiting for things to magically happen. It's about taking action towards our goals and being open to the opportunities and resources that come our way. When we are aligned with our true purpose and take action towards it, the universe can work with us to make it happen.\n\nI have seen this quote come to life in my own experiences as a self-taught developer. When I had a strong desire to learn how to code and break into the tech industry, I took action towards my goal. I started teaching myself to code, attending meetups, and networking with other developers. And as I continued to work hard towards my goals, opportunities and resources started to appear seemingly out of nowhere.\n\nThis quote also reminds me of the power of visualization and manifestation in our lives. When we can clearly visualize our goals and desires, and feel the emotions associated with them, we can send out a powerful signal to the universe that we are ready to receive them. The universe can then work to bring those desires into reality.\n\nOur dreams are possible, and that when we take action towards them, the universe can work in our favor to help us achieve them. So let's keep pushing ourselves towards our goals, and trust that the universe is on our side. 🤙 -->\n<!-- \n<div style=\"margin-top:30px;font-size:14px;font-style:italic\">\n**GIFs are not my own, you can check them in <a href=\"https://giphy.com\" target=\"_blank\">here</a>.\n</div> -->\n","excerpt":"Go back Home!!   ","description":"The Alchemist - a book written by Paolo Coelho(My takeaways and learnings)","path":"/the-book-that-inspires-me/","cover":null,"tags":[],"author":{"id":"kevin-rad","title":"kevin-rad","path":"/author/kevin-rad/"}}},{"node":{"id":"a42b8bcc7bf15f7796de02de7ae64711","title":"Jeffsum, a Jeff Goldblum movie lines text placeholder generator","timeToRead":1,"datetime":"2018-02-24 18:23:28","content":"<p><a href=\"http://localhost:8080/\" target=\"_blank\" rel=\"nofollow noopener noreferrer\">Go back Home!!</a></p>\n","excerpt":"Checkmate... Remind me to thank John for a lovely weekend. You know what? It is beets. I've crashed into a beet truck. Jaguar shark! So tell me - does it really exist? Is this my espresso machine? Wh-what is-h-how did you get my espresso machine? What do they got in there? King Kong? [...]","description":"A little text placeholder generator of Jeff Goldblum awesomeness.","path":"/jeffsum-a-jeff-goldblum-movie-lines-text-placeholder-generator/","cover":null,"tags":[{"id":"archived","title":"archived","path":"/tag/archived/"}],"author":{"id":"kevin-rad","title":"kevin-rad","path":"/author/kevin-rad/"}}}]}},"context":{}}