{"hash":"dfea37a76bd371b2812efbbbcbb8f4cbe65b6050","data":{"author":{"id":"kevin-rad","title":"kevin-rad","path":"/author/kevin-rad/","belongsTo":{"totalCount":11,"pageInfo":{"totalPages":2,"currentPage":1},"edges":[{"node":{"id":"dd4c969551ee4eac4a850f1736ad4e01","title":"Yoga Nidra: A Journey into the Subconscious","datetime":"2023-02-15 11:31:10","path":"/yoga-nidra-a-journey-into-the-subconscious/","content":"<p>Yoga Nidra, also referred to as \"yogic sleep,\" is an incredibly potent meditation technique that has the ability to take you on a profound journey deep into your subconscious mind. Ever since discovering it through Andrew Huberman's podcasts, I have been regularly practicing yoga nidra for a while now. During a recent session, I had an experience that left me feeling both inexplicably rested and somewhat surreal.</p>\n<div align=\"center\" style=\"margin:10%\">\n<div style=\"width:50%;height:0;padding-bottom:50%;position:relative;\"><iframe src=\"https://giphy.com/embed/TZSKYySNOFu0JUqIyQ\" width=\"100%\" height=\"100%\" style=\"position:absolute\" frameBorder=\"0\"  allowFullScreen></iframe></div>\n</div>\n<!-- > \"It was as if my body was no longer bound to the earth and I was\n> floating freely in space.\" -->\n<p>I settled into my practice, listening to the guide's soothing voice as I relaxed into a state of deep relaxation. As the minutes passed, I began to feel a sensation of levitation throughout my body. It was as if my body was no longer bound to the earth and I was floating freely in space.</p>\n<blockquote>\n<p>\"...as if I was being vacuumed into a portal, a black oval that\ngrew larger and larger as I let myself go.\"</p>\n</blockquote>\n<p>As I went deeper into my sensations, I suddenly found myself in a new experience. It was as if I was being vacuumed into a portal, a black oval that grew larger and larger as I let myself go. I felt myself fighting against it, afraid to go further into the unknown.</p>\n<div align=\"center\" style=\"margin:10%\">\n    <div style=\"width:100%;height:0;padding-bottom:50%;position:relative;\"><iframe src=\"https://giphy.com/embed/FRuActlQlBqWA\" width=\"100%\" height=\"100%\" style=\"position:absolute\" frameBorder=\"0\"  allowFullScreen></iframe></div>\n</div>\n<p>But as I fought back, I began to realize that this experience was not to be feared. It was a journey into my subconscious mind, a place where I could explore my deepest thoughts, emotions, and desires. I felt a sense of wonder and curiosity as I allowed myself to surrender to the experience.</p>\n<p>When the practice ended, I felt a deep sense of rest and relaxation, as if I had just awoken from a deep and restful sleep. The experience was surreal, yet transformative. It allowed me to tap into a deeper level of awareness and connect with a part of myself that I don't often access in my daily life.</p>\n<div align=\"center\" style=\"margin:10%\">\n    <div style=\"width:100%;height:0;padding-bottom:40%;position:relative;\"><iframe src=\"https://giphy.com/embed/el7Y5DVVAxu2uBa5ZG\" width=\"100%\" height=\"100%\" style=\"position:absolute\" frameBorder=\"0\" class=\"giphy-embed\" allowFullScreen></iframe></div>\n</div>\n<p>If you're feeling stressed, anxious, or just plain curious, you should give Yoga Nidra a try. It's a powerful way to explore your inner world and tap into your creativity. And who knows, you might just end up floating in space too (figuratively, of course😁). </p>\n<blockquote>\n<p>\"Yoga is not about touching your toes,\nit's about what you learn on the way down.\"\n~Jigar</p>\n</blockquote>\n<div style=\"margin-top:30px;font-size:14px;font-style:italic\">\n**GIFs are not my own, you can check them in <a href=\"https://giphy.com\" target=\"_blank\">here</a>.\n</div>\n","excerpt":"Ever since discovering it through Andrew Huberman's podcasts, I have been regularly practicing yoga nidra for a while now [...]","description":"Yoga nidra experience","timeToRead":2,"tags":[{"id":"personal-stories","title":"personal-stories","path":"/tag/personal-stories/"}]}},{"node":{"id":"6925a6d1ecf8bba0e3d884451e899958","title":"There's no place like Home❤️: Trip to Philippines","datetime":"2022-11-30 12:35:45","path":"/there-s-no-place-like-home-trip-to-philippines/","content":"\n","excerpt":"Lorem ipsum dolor sit amet, consectetur adipiscing elit, sed do eiusmod tempor incididunt ut labore et dolore magna aliqua. Ut enim ad minim veniam, quis nostrud exercitation ullamco laboris nisi ut aliquip ex ea commodo consequat. [...]","description":"","timeToRead":0,"tags":[]}},{"node":{"id":"1d28ded89cb5e44adfcfe75d2554123a","title":"My Comfort Food, A Taste of Home","datetime":"2022-11-20 12:39:29","path":"/my-comfort-food-a-taste-of-home/","content":"\n","excerpt":"Lorem ipsum dolor sit amet, consectetur adipiscing elit, sed do eiusmod tempor incididunt ut labore et dolore magna aliqua. Ut enim ad minim veniam, quis nostrud exercitation ullamco laboris nisi ut aliquip ex ea commodo consequat. [...]","description":"","timeToRead":0,"tags":[]}},{"node":{"id":"3ade2b0e7db9fa02b7a67011a1461414","title":"Passion in Cooking","datetime":"2022-04-22 13:59:57","path":"/passion-in-cooking/","content":"<p>I'm not talking about your everyday burnt toast or scrambled eggs (although I have a Ph.D. in the latter). I mean the type of cooking that involves creating dishes that make Gordon Ramsay's mouth water.</p>\n<div align=\"center\" style=\"margin:10%\">\n    <div style=\"width:100%;height:0;padding-bottom:56%;position:relative;\"><iframe src=\"https://giphy.com/embed/Yl4X3JyLv6fEVbTXKL\" width=\"100%\" height=\"100%\" style=\"position:absolute\" frameBorder=\"0\" class=\"giphy-embed\" allowFullScreen></iframe></div>\n</div>\n<p>Yes, the art of cooking - a true masterpiece! Some may think it's just about throwing a bunch of ingredients together and hoping for the best, but oh, how wrong they are. Cooking is a true art form, requiring creativity, skill, and a dash of courage to try new things.</p>\n<h3 id=\"but-how-did-i-become-the-masterchef-at-home-yes-a-masterchef\"><a href=\"#but-how-did-i-become-the-masterchef-at-home-yes-a-masterchef\" aria-hidden=\"true\"><span class=\"icon icon-link\"></span></a>But how did I become the MasterChef at home? Yes, a MasterChef!</h3>\n<p>Little did I know, my mom had a trick up her sleeve. You see, I was too young to realize that she was just saying my food was good so that I would take over the cooking chore. And boy, did I fall for it hook, line, and sinker.</p>\n<div align=\"center\" style=\"margin:10%\">\n    <div style=\"width:100%;height:0;padding-bottom:56%;position:relative;\"><iframe src=\"https://giphy.com/embed/9SIqGto42x4oHpkS5z\" width=\"100%\" height=\"100%\" style=\"position:absolute\" frameBorder=\"0\" class=\"giphy-embed\" allowFullScreen></iframe></p>\n    </div>\n</div>\n<p>But you know what? I'm glad she did. It gave me the confidence to keep experimenting in the kitchen, to keep pushing the boundaries of what was possible, and to keep impressing my family with my culinary creations (even if they were just being nice to me).</p>\n<p>And let me tell you, there's nothing quite like the feeling of creating a dish that not only looks amazing but tastes even better. Seeing the look of joy on someone's face as they take that first bite is like a chef's version of winning an Oscar. It's the ultimate validation that all the time and effort put into the dish was worth it.</p>\n<p>But here's the thing - cooking isn't just about impressing others. It's also about exploring your own tastes and preferences, discovering new ingredients and flavor combinations, and finding what truly makes your taste buds sing. It's a journey of self-discovery and culinary exploration, and there's no better way to get there than by putting on that apron and diving in (no apron in reality though).</p>\n<h3 id=\"my-advice\"><a href=\"#my-advice\" aria-hidden=\"true\"><span class=\"icon icon-link\"></span></a>My advice..?</h3>\n<p>So here's my advice to you, dear reader: don't be afraid to unleash your inner chef. Who knows, you might just discover the next Fried Chicken ala Jobee and Adobo with white sauce masterpiece. And even if your food isn't that great, just remember that your family will probably say it's delicious anyway.</p>\n<div style=\"margin-top:30px;font-size:14px;font-style:italic\">\n**GIFs are not my own, you can check them in <a href=\"https://giphy.com\" target=\"_blank\">here</a>.\n</div>\n","excerpt":"I'm not talking about your everyday burnt toast or scrambled eggs (although I have a Ph.D. in the latter). I mean the type of cooking that involves creating dishes that make Gordon Ramsay's mouth","description":"Nothing but what passion is","timeToRead":2,"tags":[{"id":"personal-stories","title":"personal-stories","path":"/tag/personal-stories/"}]}},{"node":{"id":"e0a2b38dc59cd7431a7b82765c135081","title":"On the Matters of Love","datetime":"2019-02-23 13:59:57","path":"/on-the-matters-of-love/","content":"<h2 id=\"sorry-the-article-got-archived\"><a href=\"#sorry-the-article-got-archived\" aria-hidden=\"true\"><span class=\"icon icon-link\"></span></a>Sorry the article got archived.</h2>\n<h3 id=\"it-seems-that-love-doesnt-matter-anymore\"><a href=\"#it-seems-that-love-doesnt-matter-anymore\" aria-hidden=\"true\"><span class=\"icon icon-link\"></span></a>It seems that LOVE doesn't matter anymore</h3>\n<p>just kidding✌️... we'll post it back soon</p>\n<p>Go <a href=\"http://localhost:8080/\" target=\"_blank\" rel=\"nofollow noopener noreferrer\">Home</a>!!</p>\n","excerpt":"Lorem ipsum dolor sit amet, consectetur adipiscing elit, sed do eiusmod tempor incididunt ut labore et dolore magna aliqua. Ut enim ad minim veniam, quis nostrud exercitation ullamco laboris nisi ut aliquip ex ea commodo consequat. [...]","description":"Sed ut perspiciatis unde omnis iste natus error sit voluptatem accusantium doloremque laudantium.","timeToRead":1,"tags":[{"id":"archived","title":"archived","path":"/tag/archived/"}]}},{"node":{"id":"7e4a18541b953efce797eca0230c4c95","title":"Happy little quotes from Bob Ross","datetime":"2019-02-22 13:59:57","path":"/happy-little-quotes-from-bob-ross/","content":"<p>Lorem ipsum dolor sit amet, consectetur adipiscing elit, sed do eiusmod tempor incididunt ut labore et dolore magna aliqua. Ut enim ad minim veniam, quis nostrud exercitation ullamco laboris nisi ut aliquip ex ea commodo consequat. [...]</p>\n","excerpt":"Lorem ipsum dolor sit amet, consectetur adipiscing elit, sed do eiusmod tempor incididunt ut labore et dolore magna aliqua. Ut enim ad minim veniam, quis nostrud exercitation ullamco laboris nisi ut aliquip ex ea commodo consequat. [...]","description":"This is probably the greatest thing to happen in my life - to be able to share this with you.","timeToRead":1,"tags":[{"id":"archived","title":"archived","path":"/tag/archived/"}]}}]}}},"context":{}}